package test1;
import java.util.*;

public class UserMainCode {

public static void main(String[] args) {
Scanner sc=new Scanner(System.in);
//int a[]=new int[15];
int j=0,b;
int count=0;

//System.out.println("enter size of array");
//int n=sc.nextInt();


//for(int i=0;i<=n-1;i++)
//{
//	 System.out.println("enter values");
//	 a[i]=sc.nextInt();
//}
Main arr = new Main();
int[] a =arr.name();
int n = a.length;

         for(int i=0;i<n-4;i++)
		{
			b=a[i];
			if(b==a[j] && b==a[j+1] && b==a[j+2])
			{
				count++;}
			j++;
		}
		
			if(count>=1)
				System.out.println("TRUE");
			else
				System.out.println("FALSE");
			
		}
		}
		
		

------------------------------------------------------------------


package test1;
import java.util.*;

public class Main {
	public static int[] name() {
		
	
	Scanner sc=new Scanner(System.in);
	int a[]=new int[15];
	
	System.out.println("enter size of array");
	int n=sc.nextInt();
	
	
	 for(int i=0;i<=n-1;i++)
	 {
		 System.out.println("enter values");
		 a[i]=sc.nextInt();
		 
	 }
	 return a;

	

}
}
	